<svg xmlns="http://www.w3.org/2000/svg" xmlns:xlink="http://www.w3.org/1999/xlink" width="288.764" height="60.576" viewBox="0 0 288.764 60.576">
  <defs>
    <filter id="Caminho_294" x="52.649" y="6.691" width="29.336" height="33.43" filterUnits="userSpaceOnUse">
      <feOffset input="SourceAlpha"/>
      <feGaussianBlur stdDeviation="3" result="blur"/>
      <feFlood flood-opacity="0.439"/>
      <feComposite operator="in" in2="blur"/>
      <feComposite in="SourceGraphic"/>
    </filter>
    <filter id="Caminho_295" x="66.865" y="6.691" width="31.373" height="33.43" filterUnits="userSpaceOnUse">
      <feOffset input="SourceAlpha"/>
      <feGaussianBlur stdDeviation="3" result="blur-2"/>
      <feFlood flood-opacity="0.439"/>
      <feComposite operator="in" in2="blur-2"/>
      <feComposite in="SourceGraphic"/>
    </filter>
    <filter id="Caminho_296" x="83.684" y="6.784" width="30.982" height="33.338" filterUnits="userSpaceOnUse">
      <feOffset input="SourceAlpha"/>
      <feGaussianBlur stdDeviation="3" result="blur-3"/>
      <feFlood flood-opacity="0.439"/>
      <feComposite operator="in" in2="blur-3"/>
      <feComposite in="SourceGraphic"/>
    </filter>
    <filter id="Caminho_297" x="98.044" y="6.691" width="33.43" height="33.43" filterUnits="userSpaceOnUse">
      <feOffset input="SourceAlpha"/>
      <feGaussianBlur stdDeviation="3" result="blur-4"/>
      <feFlood flood-opacity="0.439"/>
      <feComposite operator="in" in2="blur-4"/>
      <feComposite in="SourceGraphic"/>
    </filter>
    <filter id="Caminho_298" x="114.998" y="6.691" width="31.373" height="33.43" filterUnits="userSpaceOnUse">
      <feOffset input="SourceAlpha"/>
      <feGaussianBlur stdDeviation="3" result="blur-5"/>
      <feFlood flood-opacity="0.439"/>
      <feComposite operator="in" in2="blur-5"/>
      <feComposite in="SourceGraphic"/>
    </filter>
    <filter id="Caminho_299" x="130.633" y="6.691" width="29.336" height="33.43" filterUnits="userSpaceOnUse">
      <feOffset input="SourceAlpha"/>
      <feGaussianBlur stdDeviation="3" result="blur-6"/>
      <feFlood flood-opacity="0.439"/>
      <feComposite operator="in" in2="blur-6"/>
      <feComposite in="SourceGraphic"/>
    </filter>
    <filter id="Caminho_300" x="144.324" y="6.691" width="31.136" height="33.43" filterUnits="userSpaceOnUse">
      <feOffset input="SourceAlpha"/>
      <feGaussianBlur stdDeviation="3" result="blur-7"/>
      <feFlood flood-opacity="0.439"/>
      <feComposite operator="in" in2="blur-7"/>
      <feComposite in="SourceGraphic"/>
    </filter>
    <filter id="Caminho_301" x="161.03" y="6.691" width="31.783" height="33.43" filterUnits="userSpaceOnUse">
      <feOffset input="SourceAlpha"/>
      <feGaussianBlur stdDeviation="3" result="blur-8"/>
      <feFlood flood-opacity="0.439"/>
      <feComposite operator="in" in2="blur-8"/>
      <feComposite in="SourceGraphic"/>
    </filter>
    <filter id="Caminho_302" x="177.242" y="6.691" width="33.43" height="33.43" filterUnits="userSpaceOnUse">
      <feOffset input="SourceAlpha"/>
      <feGaussianBlur stdDeviation="3" result="blur-9"/>
      <feFlood flood-opacity="0.439"/>
      <feComposite operator="in" in2="blur-9"/>
      <feComposite in="SourceGraphic"/>
    </filter>
    <filter id="Caminho_303" x="195.009" y="6.691" width="29.316" height="33.43" filterUnits="userSpaceOnUse">
      <feOffset input="SourceAlpha"/>
      <feGaussianBlur stdDeviation="3" result="blur-10"/>
      <feFlood flood-opacity="0.439"/>
      <feComposite operator="in" in2="blur-10"/>
      <feComposite in="SourceGraphic"/>
    </filter>
    <filter id="Caminho_304" x="208.093" y="6.691" width="33.43" height="33.43" filterUnits="userSpaceOnUse">
      <feOffset input="SourceAlpha"/>
      <feGaussianBlur stdDeviation="3" result="blur-11"/>
      <feFlood flood-opacity="0.439"/>
      <feComposite operator="in" in2="blur-11"/>
      <feComposite in="SourceGraphic"/>
    </filter>
    <filter id="Caminho_305" x="224.995" y="6.691" width="31.372" height="33.43" filterUnits="userSpaceOnUse">
      <feOffset input="SourceAlpha"/>
      <feGaussianBlur stdDeviation="3" result="blur-12"/>
      <feFlood flood-opacity="0.439"/>
      <feComposite operator="in" in2="blur-12"/>
      <feComposite in="SourceGraphic"/>
    </filter>
    <filter id="Caminho_306" x="241.896" y="6.681" width="20.252" height="33.44" filterUnits="userSpaceOnUse">
      <feOffset input="SourceAlpha"/>
      <feGaussianBlur stdDeviation="3" result="blur-13"/>
      <feFlood flood-opacity="0.439"/>
      <feComposite operator="in" in2="blur-13"/>
      <feComposite in="SourceGraphic"/>
    </filter>
    <filter id="Caminho_307" x="246.92" y="6.784" width="33.512" height="33.338" filterUnits="userSpaceOnUse">
      <feOffset input="SourceAlpha"/>
      <feGaussianBlur stdDeviation="3" result="blur-14"/>
      <feFlood flood-opacity="0.439"/>
      <feComposite operator="in" in2="blur-14"/>
      <feComposite in="SourceGraphic"/>
    </filter>
    <filter id="Caminho_308" x="264.089" y="7.164" width="24.676" height="24.357" filterUnits="userSpaceOnUse">
      <feOffset input="SourceAlpha"/>
      <feGaussianBlur stdDeviation="3" result="blur-15"/>
      <feFlood flood-opacity="0.439"/>
      <feComposite operator="in" in2="blur-15"/>
      <feComposite in="SourceGraphic"/>
    </filter>
    <filter id="Caminho_309" x="52.671" y="28.791" width="23.163" height="25.027" filterUnits="userSpaceOnUse">
      <feOffset input="SourceAlpha"/>
      <feGaussianBlur stdDeviation="3" result="blur-16"/>
      <feFlood flood-opacity="0.439"/>
      <feComposite operator="in" in2="blur-16"/>
      <feComposite in="SourceGraphic"/>
    </filter>
    <filter id="Caminho_310" x="58.909" y="28.791" width="25.028" height="25.379" filterUnits="userSpaceOnUse">
      <feOffset input="SourceAlpha"/>
      <feGaussianBlur stdDeviation="3" result="blur-17"/>
      <feFlood flood-opacity="0.439"/>
      <feComposite operator="in" in2="blur-17"/>
      <feComposite in="SourceGraphic"/>
    </filter>
    <filter id="Caminho_311" x="66.864" y="28.791" width="24.09" height="25.027" filterUnits="userSpaceOnUse">
      <feOffset input="SourceAlpha"/>
      <feGaussianBlur stdDeviation="3" result="blur-18"/>
      <feFlood flood-opacity="0.439"/>
      <feComposite operator="in" in2="blur-18"/>
      <feComposite in="SourceGraphic"/>
    </filter>
    <filter id="Caminho_312" x="74.651" y="28.786" width="19.026" height="25.033" filterUnits="userSpaceOnUse">
      <feOffset input="SourceAlpha"/>
      <feGaussianBlur stdDeviation="3" result="blur-19"/>
      <feFlood flood-opacity="0.439"/>
      <feComposite operator="in" in2="blur-19"/>
      <feComposite in="SourceGraphic"/>
    </filter>
    <filter id="Caminho_313" x="77.272" y="28.791" width="23.524" height="25.027" filterUnits="userSpaceOnUse">
      <feOffset input="SourceAlpha"/>
      <feGaussianBlur stdDeviation="3" result="blur-20"/>
      <feFlood flood-opacity="0.439"/>
      <feComposite operator="in" in2="blur-20"/>
      <feComposite in="SourceGraphic"/>
    </filter>
    <filter id="Caminho_314" x="83.486" y="28.833" width="25.065" height="24.986" filterUnits="userSpaceOnUse">
      <feOffset input="SourceAlpha"/>
      <feGaussianBlur stdDeviation="3" result="blur-21"/>
      <feFlood flood-opacity="0.439"/>
      <feComposite operator="in" in2="blur-21"/>
      <feComposite in="SourceGraphic"/>
    </filter>
    <filter id="Caminho_315" x="91.395" y="28.791" width="25.033" height="25.027" filterUnits="userSpaceOnUse">
      <feOffset input="SourceAlpha"/>
      <feGaussianBlur stdDeviation="3" result="blur-22"/>
      <feFlood flood-opacity="0.439"/>
      <feComposite operator="in" in2="blur-22"/>
      <feComposite in="SourceGraphic"/>
    </filter>
    <filter id="Caminho_316" x="99.8" y="28.791" width="23.163" height="25.027" filterUnits="userSpaceOnUse">
      <feOffset input="SourceAlpha"/>
      <feGaussianBlur stdDeviation="3" result="blur-23"/>
      <feFlood flood-opacity="0.439"/>
      <feComposite operator="in" in2="blur-23"/>
      <feComposite in="SourceGraphic"/>
    </filter>
    <filter id="Caminho_317" x="106.37" y="28.791" width="24.278" height="25.027" filterUnits="userSpaceOnUse">
      <feOffset input="SourceAlpha"/>
      <feGaussianBlur stdDeviation="3" result="blur-24"/>
      <feFlood flood-opacity="0.439"/>
      <feComposite operator="in" in2="blur-24"/>
      <feComposite in="SourceGraphic"/>
    </filter>
    <filter id="Caminho_318" x="113.739" y="28.791" width="24.091" height="25.027" filterUnits="userSpaceOnUse">
      <feOffset input="SourceAlpha"/>
      <feGaussianBlur stdDeviation="3" result="blur-25"/>
      <feFlood flood-opacity="0.439"/>
      <feComposite operator="in" in2="blur-25"/>
      <feComposite in="SourceGraphic"/>
    </filter>
    <filter id="Caminho_319" x="120.51" y="28.791" width="25.028" height="25.027" filterUnits="userSpaceOnUse">
      <feOffset input="SourceAlpha"/>
      <feGaussianBlur stdDeviation="3" result="blur-26"/>
      <feFlood flood-opacity="0.439"/>
      <feComposite operator="in" in2="blur-26"/>
      <feComposite in="SourceGraphic"/>
    </filter>
    <filter id="Caminho_320" x="128.245" y="28.791" width="23.233" height="25.027" filterUnits="userSpaceOnUse">
      <feOffset input="SourceAlpha"/>
      <feGaussianBlur stdDeviation="3" result="blur-27"/>
      <feFlood flood-opacity="0.439"/>
      <feComposite operator="in" in2="blur-27"/>
      <feComposite in="SourceGraphic"/>
    </filter>
    <filter id="Caminho_321" x="138.19" y="28.786" width="19.026" height="25.033" filterUnits="userSpaceOnUse">
      <feOffset input="SourceAlpha"/>
      <feGaussianBlur stdDeviation="3" result="blur-28"/>
      <feFlood flood-opacity="0.439"/>
      <feComposite operator="in" in2="blur-28"/>
      <feComposite in="SourceGraphic"/>
    </filter>
    <filter id="Caminho_322" x="140.811" y="28.791" width="24.278" height="25.027" filterUnits="userSpaceOnUse">
      <feOffset input="SourceAlpha"/>
      <feGaussianBlur stdDeviation="3" result="blur-29"/>
      <feFlood flood-opacity="0.439"/>
      <feComposite operator="in" in2="blur-29"/>
      <feComposite in="SourceGraphic"/>
    </filter>
    <filter id="Caminho_323" x="148.536" y="28.786" width="23.988" height="25.033" filterUnits="userSpaceOnUse">
      <feOffset input="SourceAlpha"/>
      <feGaussianBlur stdDeviation="3" result="blur-30"/>
      <feFlood flood-opacity="0.439"/>
      <feComposite operator="in" in2="blur-30"/>
      <feComposite in="SourceGraphic"/>
    </filter>
    <filter id="Caminho_324" x="155.915" y="28.791" width="24.09" height="25.027" filterUnits="userSpaceOnUse">
      <feOffset input="SourceAlpha"/>
      <feGaussianBlur stdDeviation="3" result="blur-31"/>
      <feFlood flood-opacity="0.439"/>
      <feComposite operator="in" in2="blur-31"/>
      <feComposite in="SourceGraphic"/>
    </filter>
    <filter id="Caminho_325" x="163.188" y="28.791" width="23.233" height="25.027" filterUnits="userSpaceOnUse">
      <feOffset input="SourceAlpha"/>
      <feGaussianBlur stdDeviation="3" result="blur-32"/>
      <feFlood flood-opacity="0.439"/>
      <feComposite operator="in" in2="blur-32"/>
      <feComposite in="SourceGraphic"/>
    </filter>
    <filter id="Caminho_326" x="169.313" y="28.791" width="24.091" height="25.027" filterUnits="userSpaceOnUse">
      <feOffset input="SourceAlpha"/>
      <feGaussianBlur stdDeviation="3" result="blur-33"/>
      <feFlood flood-opacity="0.439"/>
      <feComposite operator="in" in2="blur-33"/>
      <feComposite in="SourceGraphic"/>
    </filter>
    <filter id="Caminho_327" x="176.487" y="28.833" width="23.697" height="24.986" filterUnits="userSpaceOnUse">
      <feOffset input="SourceAlpha"/>
      <feGaussianBlur stdDeviation="3" result="blur-34"/>
      <feFlood flood-opacity="0.439"/>
      <feComposite operator="in" in2="blur-34"/>
      <feComposite in="SourceGraphic"/>
    </filter>
    <filter id="Caminho_328" x="183.557" y="28.786" width="19.026" height="25.033" filterUnits="userSpaceOnUse">
      <feOffset input="SourceAlpha"/>
      <feGaussianBlur stdDeviation="3" result="blur-35"/>
      <feFlood flood-opacity="0.439"/>
      <feComposite operator="in" in2="blur-35"/>
      <feComposite in="SourceGraphic"/>
    </filter>
    <filter id="Caminho_329" x="185.84" y="28.833" width="25.066" height="24.986" filterUnits="userSpaceOnUse">
      <feOffset input="SourceAlpha"/>
      <feGaussianBlur stdDeviation="3" result="blur-36"/>
      <feFlood flood-opacity="0.439"/>
      <feComposite operator="in" in2="blur-36"/>
      <feComposite in="SourceGraphic"/>
    </filter>
    <filter id="Caminho_330" x="193.936" y="28.786" width="19.027" height="25.033" filterUnits="userSpaceOnUse">
      <feOffset input="SourceAlpha"/>
      <feGaussianBlur stdDeviation="3" result="blur-37"/>
      <feFlood flood-opacity="0.439"/>
      <feComposite operator="in" in2="blur-37"/>
      <feComposite in="SourceGraphic"/>
    </filter>
    <filter id="Caminho_331" x="196.23" y="28.791" width="23.233" height="25.027" filterUnits="userSpaceOnUse">
      <feOffset input="SourceAlpha"/>
      <feGaussianBlur stdDeviation="3" result="blur-38"/>
      <feFlood flood-opacity="0.439"/>
      <feComposite operator="in" in2="blur-38"/>
      <feComposite in="SourceGraphic"/>
    </filter>
    <filter id="Retângulo_122" x="0" y="0" width="60.638" height="60.576" filterUnits="userSpaceOnUse">
      <feOffset input="SourceAlpha"/>
      <feGaussianBlur stdDeviation="3" result="blur-39"/>
      <feFlood flood-opacity="0.439"/>
      <feComposite operator="in" in2="blur-39"/>
      <feComposite in="SourceGraphic"/>
    </filter>
  </defs>
  <g id="Grupo_108" data-name="Grupo 108" transform="translate(-108.444 406.972)">
    <g id="Grupo_106" data-name="Grupo 106" transform="translate(170.094 -391.291)">
      <g transform="matrix(1, 0, 0, 1, -61.65, -15.68)" filter="url(#Caminho_294)">
        <path id="Caminho_294-2" data-name="Caminho 294" d="M290.457-370.245l6.686.021v2.932l-6.686-.021v3.405h8.157v2.952H287.3v-15.42l11.336-.011v2.953h-8.177Z" transform="translate(-225.65 392.08)" fill="#fff"/>
      </g>
      <g transform="matrix(1, 0, 0, 1, -61.65, -15.68)" filter="url(#Caminho_295)">
        <path id="Caminho_295-2" data-name="Caminho 295" d="M339.845-360.956a7.022,7.022,0,0,1-4.783-1.646,5.172,5.172,0,0,1-1.9-4.022v-9.762h3.148v8.95a3.006,3.006,0,0,0,1.019,2.51,3.951,3.951,0,0,0,2.52.8,3.952,3.952,0,0,0,2.52-.8,3.01,3.01,0,0,0,1.019-2.51v-8.95h3.147v9.762a5.156,5.156,0,0,1-1.9,4.022A7.022,7.022,0,0,1,339.845-360.956Z" transform="translate(-257.29 392.08)" fill="#fff"/>
      </g>
      <g transform="matrix(1, 0, 0, 1, -61.65, -15.68)" filter="url(#Caminho_296)">
        <path id="Caminho_296-2" data-name="Caminho 296" d="M393.189-366.376h-2.458v5.627h-3.313v-15.338h6.738a5.853,5.853,0,0,1,4.3,1.492,4.561,4.561,0,0,1,1.255,3.384v.041a4.634,4.634,0,0,1-3.106,4.557l3.795,5.864h-4.124Zm.7-6.707h-3.168v4.115h3.22c1.574,0,2.427-.813,2.427-2.027v-.041C396.368-372.4,395.452-373.083,393.888-373.083Z" transform="translate(-294.73 391.87)" fill="#fff"/>
      </g>
      <g transform="matrix(1, 0, 0, 1, -61.65, -15.68)" filter="url(#Caminho_297)">
        <path id="Caminho_297-2" data-name="Caminho 297" d="M441.462-360.956a7.5,7.5,0,0,1-5.5-2.212,7.5,7.5,0,0,1-2.212-5.5,7.481,7.481,0,0,1,2.212-5.5,7.5,7.5,0,0,1,5.5-2.212,7.5,7.5,0,0,1,5.5,2.212,7.5,7.5,0,0,1,2.211,5.5,7.5,7.5,0,0,1-2.211,5.5A7.486,7.486,0,0,1,441.462-360.956Zm-.01-12.477a4.284,4.284,0,0,0-3.282,1.368,4.824,4.824,0,0,0-1.255,3.395,4.824,4.824,0,0,0,1.255,3.395,4.312,4.312,0,0,0,3.3,1.368,4.284,4.284,0,0,0,3.282-1.368,4.826,4.826,0,0,0,1.254-3.395,4.826,4.826,0,0,0-1.254-3.395A4.314,4.314,0,0,0,441.452-373.433Z" transform="translate(-326.7 392.08)" fill="#fff"/>
      </g>
      <g transform="matrix(1, 0, 0, 1, -61.65, -15.68)" filter="url(#Caminho_298)">
        <path id="Caminho_298-2" data-name="Caminho 298" d="M496.25-360.956h-2.243V-374.38h-5.565v-2.006h13.373v2.006H496.25Z" transform="translate(-364.44 392.08)" fill="#fff"/>
      </g>
      <g transform="matrix(1, 0, 0, 1, -61.65, -15.68)" filter="url(#Caminho_299)">
        <path id="Caminho_299-2" data-name="Caminho 299" d="M541.177-369.782l7.4.02v1.985l-7.4-.02v4.835H550.2v2.006H538.883v-15.42l11.336-.011v2.006h-9.042Z" transform="translate(-399.25 392.08)" fill="#fff"/>
      </g>
      <g transform="matrix(1, 0, 0, 1, -61.65, -15.68)" filter="url(#Caminho_300)">
        <path id="Caminho_300-2" data-name="Caminho 300" d="M585.284-363.167a7.371,7.371,0,0,1-2.232-5.534,7.416,7.416,0,0,1,2.242-5.462,7.537,7.537,0,0,1,5.555-2.222,8.655,8.655,0,0,1,5.339,1.718l-1.512,1.646a6.662,6.662,0,0,0-3.837-1.142,5.433,5.433,0,0,0-4.012,1.543,5.265,5.265,0,0,0-1.523,3.9,5.426,5.426,0,0,0,1.564,4.022,5.454,5.454,0,0,0,4,1.512,6.662,6.662,0,0,0,3.806-1.121l1.512,1.635a8.575,8.575,0,0,1-5.339,1.718A7.592,7.592,0,0,1,585.284-363.167Z" transform="translate(-429.73 392.08)" fill="#fff"/>
      </g>
      <g transform="matrix(1, 0, 0, 1, -61.65, -15.68)" filter="url(#Caminho_301)">
        <path id="Caminho_301-2" data-name="Caminho 301" d="M639.2-371.942v10.986h-2.252v-15.43h.349l11.182,11.1v-11.1h2.252v15.43h-.452Z" transform="translate(-466.92 392.08)" fill="#fff"/>
      </g>
      <g transform="matrix(1, 0, 0, 1, -61.65, -15.68)" filter="url(#Caminho_302)">
        <path id="Caminho_302-2" data-name="Caminho 302" d="M696.965-360.956a7.434,7.434,0,0,1-5.5-2.212,7.449,7.449,0,0,1-2.212-5.5,7.449,7.449,0,0,1,2.212-5.5,7.451,7.451,0,0,1,5.5-2.212,7.453,7.453,0,0,1,5.5,2.212,7.451,7.451,0,0,1,2.211,5.5,7.452,7.452,0,0,1-2.211,5.5A7.452,7.452,0,0,1,696.965-360.956Zm-.01-13.424a5.172,5.172,0,0,0-3.96,1.656,5.791,5.791,0,0,0-1.513,4.053,5.79,5.79,0,0,0,1.513,4.053,5.2,5.2,0,0,0,3.98,1.656,5.175,5.175,0,0,0,3.961-1.656,5.794,5.794,0,0,0,1.512-4.053,5.794,5.794,0,0,0-1.512-4.053A5.2,5.2,0,0,0,696.955-374.38Z" transform="translate(-503.01 392.08)" fill="#fff"/>
      </g>
      <g transform="matrix(1, 0, 0, 1, -61.65, -15.68)" filter="url(#Caminho_303)">
        <path id="Caminho_303-2" data-name="Caminho 303" d="M746.567-376.386h2.294v13.424h9.022v2.006H746.567Z" transform="translate(-542.56 392.08)" fill="#fff"/>
      </g>
      <g transform="matrix(1, 0, 0, 1, -61.65, -15.68)" filter="url(#Caminho_304)">
        <path id="Caminho_304-2" data-name="Caminho 304" d="M796.492-360.956a7.435,7.435,0,0,1-5.5-2.212,7.448,7.448,0,0,1-2.212-5.5,7.448,7.448,0,0,1,2.212-5.5,7.452,7.452,0,0,1,5.5-2.212,7.453,7.453,0,0,1,5.5,2.212,7.451,7.451,0,0,1,2.211,5.5,7.452,7.452,0,0,1-2.211,5.5A7.452,7.452,0,0,1,796.492-360.956Zm-.01-13.424a5.173,5.173,0,0,0-3.96,1.656,5.793,5.793,0,0,0-1.513,4.053,5.792,5.792,0,0,0,1.513,4.053,5.2,5.2,0,0,0,3.98,1.656,5.174,5.174,0,0,0,3.961-1.656,5.793,5.793,0,0,0,1.512-4.053,5.794,5.794,0,0,0-1.512-4.053A5.2,5.2,0,0,0,796.482-374.38Z" transform="translate(-571.68 392.08)" fill="#fff"/>
      </g>
      <g transform="matrix(1, 0, 0, 1, -61.65, -15.68)" filter="url(#Caminho_305)">
        <path id="Caminho_305-2" data-name="Caminho 305" d="M845.539-363.167a7.375,7.375,0,0,1-2.232-5.534,7.379,7.379,0,0,1,2.242-5.462,7.515,7.515,0,0,1,5.545-2.222,8.634,8.634,0,0,1,5.339,1.718l-1.5,1.646a6.709,6.709,0,0,0-3.837-1.142,5.433,5.433,0,0,0-4.012,1.543,5.263,5.263,0,0,0-1.523,3.9,5.384,5.384,0,0,0,1.564,4.022,5.445,5.445,0,0,0,3.991,1.512,5.223,5.223,0,0,0,3.313-.967V-367.8l-2.859.031v-2.016h5.112v6.913a8.5,8.5,0,0,1-5.585,1.913A7.585,7.585,0,0,1,845.539-363.167Z" transform="translate(-609.31 392.08)" fill="#fff"/>
      </g>
      <g transform="matrix(1, 0, 0, 1, -61.65, -15.68)" filter="url(#Caminho_306)">
        <path id="Caminho_306-2" data-name="Caminho 306" d="M897.831-376.418h2.252v15.44h-2.252Z" transform="translate(-646.94 392.1)" fill="#fff"/>
      </g>
      <g transform="matrix(1, 0, 0, 1, -61.65, -15.68)" filter="url(#Caminho_307)">
        <path id="Caminho_307-2" data-name="Caminho 307" d="M925.446-364.812H918.06l-1.81,4.063h-2.212l6.522-15.338h2.478l6.511,15.338h-2.283Zm-6.779-1.986h6.182l-3.107-7.694Z" transform="translate(-658.12 391.87)" fill="#fff"/>
      </g>
      <g transform="matrix(1, 0, 0, 1, -61.65, -15.68)" filter="url(#Caminho_308)">
        <path id="Caminho_308-2" data-name="Caminho 308" d="M972.769-374.859a3.233,3.233,0,0,1,3.333,3.171,3.247,3.247,0,0,1-3.333,3.187,3.269,3.269,0,0,1-3.342-3.187,2.965,2.965,0,0,1,.978-2.249A3.313,3.313,0,0,1,972.769-374.859Zm0,5.746a2.627,2.627,0,0,0,2.705-2.576,2.635,2.635,0,0,0-2.705-2.559,2.633,2.633,0,0,0-2.722,2.559,2.416,2.416,0,0,0,.8,1.826A2.72,2.72,0,0,0,972.769-369.113Zm.929-.782-.807-1.394h-.864v1.394h-.472v-3.586h1.434a1.134,1.134,0,0,1,1.223,1.108,1.064,1.064,0,0,1-.831,1.027l.9,1.451Zm-1.671-3.154v1.329h.921a.694.694,0,0,0,.782-.66.7.7,0,0,0-.782-.668Z" transform="translate(-696.34 391.02)" fill="#fff"/>
      </g>
    </g>
    <g id="Grupo_107" data-name="Grupo 107" transform="translate(170.115 -369.187)">
      <g transform="matrix(1, 0, 0, 1, -61.67, -37.79)" filter="url(#Caminho_309)">
        <path id="Caminho_309-2" data-name="Caminho 309" d="M288.413-302.081l3.368.009v.9l-3.368-.009v2.2h4.109v.913h-5.154v-7.023l5.163,0v.913h-4.118Z" transform="translate(-225.7 342.88)" fill="#fff"/>
      </g>
      <g transform="matrix(1, 0, 0, 1, -61.67, -37.79)" filter="url(#Caminho_310)">
        <path id="Caminho_310-2" data-name="Caminho 310" d="M314.162-298.329l-.8.619-.613-.792a3.889,3.889,0,0,1-1.743.413,3.383,3.383,0,0,1-2.507-1,3.384,3.384,0,0,1-1.007-2.5,3.382,3.382,0,0,1,1.007-2.5,3.4,3.4,0,0,1,2.507-1,3.4,3.4,0,0,1,2.506,1,3.377,3.377,0,0,1,1.007,2.5,3.525,3.525,0,0,1-.965,2.465ZM311-304.18a2.356,2.356,0,0,0-1.8.754,2.625,2.625,0,0,0-.688,1.836,2.627,2.627,0,0,0,.688,1.837,2.372,2.372,0,0,0,1.813.754,3.682,3.682,0,0,0,1.172-.23l-.628-.82.807-.614.6.782a3.134,3.134,0,0,0,.544-1.71,2.626,2.626,0,0,0-.689-1.836A2.37,2.37,0,0,0,311-304.18Z" transform="translate(-239.58 342.88)" fill="#fff"/>
      </g>
      <g transform="matrix(1, 0, 0, 1, -61.67, -37.79)" filter="url(#Caminho_311)">
        <path id="Caminho_311-2" data-name="Caminho 311" d="M336.2-298.062a3.218,3.218,0,0,1-2.193-.74,2.261,2.261,0,0,1-.853-1.771v-4.516h1.026v4.113a1.737,1.737,0,0,0,.6,1.443,2.242,2.242,0,0,0,1.421.454,2.24,2.24,0,0,0,1.419-.454,1.748,1.748,0,0,0,.6-1.443v-4.113h1.025v4.516a2.248,2.248,0,0,1-.852,1.771A3.215,3.215,0,0,1,336.2-298.062Z" transform="translate(-257.29 342.88)" fill="#fff"/>
      </g>
      <g transform="matrix(1, 0, 0, 1, -61.67, -37.79)" filter="url(#Caminho_312)">
        <path id="Caminho_312-2" data-name="Caminho 312" d="M358.279-305.106h1.026v7.033h-1.026Z" transform="translate(-274.63 342.89)" fill="#fff"/>
      </g>
      <g transform="matrix(1, 0, 0, 1, -61.67, -37.79)" filter="url(#Caminho_313)">
        <path id="Caminho_313-2" data-name="Caminho 313" d="M367.774-301.168v3.106h-1.04v-7.027h3.088c1.706,0,2.437.655,2.437,1.921,0,1.33-.741,2-2.432,2Zm0-3v2.09h2.39c.717,0,1.2-.365,1.2-1.073,0-.67-.483-1.017-1.181-1.017Z" transform="translate(-280.46 342.88)" fill="#fff"/>
      </g>
      <g transform="matrix(1, 0, 0, 1, -61.67, -37.79)" filter="url(#Caminho_314)">
        <path id="Caminho_314-2" data-name="Caminho 314" d="M391.978-299.819h-3.364l-.825,1.851h-1.008l2.971-6.986h1.129l2.966,6.986h-1.04Zm-3.087-.9h2.815l-1.414-3.5Z" transform="translate(-294.29 342.79)" fill="#fff"/>
      </g>
      <g transform="matrix(1, 0, 0, 1, -61.67, -37.79)" filter="url(#Caminho_315)">
        <path id="Caminho_315-2" data-name="Caminho 315" d="M418.307-302.812l-2.5,2.778-2.5-2.778v4.75H412.3v-7.027h.145l3.369,3.832,3.373-3.832h.145v7.027h-1.017Z" transform="translate(-311.9 342.88)" fill="#fff"/>
      </g>
      <g transform="matrix(1, 0, 0, 1, -61.67, -37.79)" filter="url(#Caminho_316)">
        <path id="Caminho_316-2" data-name="Caminho 316" d="M440.456-302.081l3.368.009v.9l-3.368-.009v2.2h4.109v.913h-5.154v-7.023l5.163,0v.913h-4.118Z" transform="translate(-330.61 342.88)" fill="#fff"/>
      </g>
      <g transform="matrix(1, 0, 0, 1, -61.67, -37.79)" filter="url(#Caminho_317)">
        <path id="Caminho_317-2" data-name="Caminho 317" d="M461.633-303.065v5h-1.026v-7.027h.16l5.092,5.055v-5.055h1.027v7.027h-.207Z" transform="translate(-345.24 342.88)" fill="#fff"/>
      </g>
      <g transform="matrix(1, 0, 0, 1, -61.67, -37.79)" filter="url(#Caminho_318)">
        <path id="Caminho_318-2" data-name="Caminho 318" d="M487.937-298.062h-1.021v-6.114h-2.535v-.913h6.091v.913h-2.535Z" transform="translate(-361.64 342.88)" fill="#fff"/>
      </g>
      <g transform="matrix(1, 0, 0, 1, -61.67, -37.79)" filter="url(#Caminho_319)">
        <path id="Caminho_319-2" data-name="Caminho 319" d="M509.738-298.062a3.387,3.387,0,0,1-2.507-1.007,3.4,3.4,0,0,1-1.007-2.506,3.4,3.4,0,0,1,1.007-2.507,3.4,3.4,0,0,1,2.507-1.007,3.394,3.394,0,0,1,2.506,1.007,3.392,3.392,0,0,1,1.007,2.507,3.391,3.391,0,0,1-1.007,2.506A3.392,3.392,0,0,1,509.738-298.062Zm-.005-6.114a2.354,2.354,0,0,0-1.8.754,2.636,2.636,0,0,0-.689,1.846,2.634,2.634,0,0,0,.689,1.846,2.367,2.367,0,0,0,1.812.755,2.356,2.356,0,0,0,1.8-.755,2.634,2.634,0,0,0,.689-1.846,2.636,2.636,0,0,0-.689-1.846A2.37,2.37,0,0,0,509.733-304.176Z" transform="translate(-376.71 342.88)" fill="#fff"/>
      </g>
      <g transform="matrix(1, 0, 0, 1, -61.67, -37.79)" filter="url(#Caminho_320)">
        <path id="Caminho_320-2" data-name="Caminho 320" d="M533.836-298.062a4.31,4.31,0,0,1-1.687-.281,3.773,3.773,0,0,1-.969-.586l.665-.646a2.776,2.776,0,0,0,1.734.6,1.583,1.583,0,0,0,1.5-.549,1.028,1.028,0,0,0,0-1.1,1.832,1.832,0,0,0-1.466-.642,3.849,3.849,0,0,1-1.588-.516,1.411,1.411,0,0,1-.647-1.349,1.614,1.614,0,0,1,.763-1.4,2.85,2.85,0,0,1,1.654-.562,4.13,4.13,0,0,1,1.565.234,3.011,3.011,0,0,1,.843.53l-.665.647a2.074,2.074,0,0,0-1.438-.5,1.518,1.518,0,0,0-1.392.548.83.83,0,0,0,.024,1.008,2.129,2.129,0,0,0,1.34.534,3.868,3.868,0,0,1,1.659.586,1.646,1.646,0,0,1,.683,1.481,1.678,1.678,0,0,1-.754,1.359A2.9,2.9,0,0,1,533.836-298.062Z" transform="translate(-393.93 342.88)" fill="#fff"/>
      </g>
      <g transform="matrix(1, 0, 0, 1, -61.67, -37.79)" filter="url(#Caminho_321)">
        <path id="Caminho_321-2" data-name="Caminho 321" d="M563.262-305.106h1.026v7.033h-1.026Z" transform="translate(-416.07 342.89)" fill="#fff"/>
      </g>
      <g transform="matrix(1, 0, 0, 1, -61.67, -37.79)" filter="url(#Caminho_322)">
        <path id="Caminho_322-2" data-name="Caminho 322" d="M572.743-303.065v5h-1.026v-7.027h.16l5.092,5.055v-5.055H578v7.027h-.207Z" transform="translate(-421.91 342.88)" fill="#fff"/>
      </g>
      <g transform="matrix(1, 0, 0, 1, -61.67, -37.79)" filter="url(#Caminho_323)">
        <path id="Caminho_323-2" data-name="Caminho 323" d="M596.64-298.073v-7.033h2.684c2.221,0,3.3,1.13,3.3,3.519s-1.083,3.513-3.3,3.513Zm1.031-6.011v5h1.654c1.51,0,2.273-.89,2.273-2.5s-.764-2.5-2.273-2.5Z" transform="translate(-439.1 342.89)" fill="#fff"/>
      </g>
      <g transform="matrix(1, 0, 0, 1, -61.67, -37.79)" filter="url(#Caminho_324)">
        <path id="Caminho_324-2" data-name="Caminho 324" d="M623.493-298.062a3.217,3.217,0,0,1-2.193-.74,2.263,2.263,0,0,1-.853-1.771v-4.516h1.026v4.113a1.737,1.737,0,0,0,.6,1.443,2.241,2.241,0,0,0,1.421.454,2.24,2.24,0,0,0,1.419-.454,1.748,1.748,0,0,0,.6-1.443v-4.113h1.025v4.516a2.249,2.249,0,0,1-.852,1.771A3.215,3.215,0,0,1,623.493-298.062Z" transform="translate(-455.53 342.88)" fill="#fff"/>
      </g>
      <g transform="matrix(1, 0, 0, 1, -61.67, -37.79)" filter="url(#Caminho_325)">
        <path id="Caminho_325-2" data-name="Caminho 325" d="M646.564-298.062a4.31,4.31,0,0,1-1.687-.281,3.775,3.775,0,0,1-.969-.586l.665-.646a2.775,2.775,0,0,0,1.734.6,1.583,1.583,0,0,0,1.5-.549,1.029,1.029,0,0,0,0-1.1,1.832,1.832,0,0,0-1.467-.642,3.848,3.848,0,0,1-1.588-.516,1.41,1.41,0,0,1-.647-1.349,1.613,1.613,0,0,1,.763-1.4,2.849,2.849,0,0,1,1.654-.562,4.127,4.127,0,0,1,1.565.234,3.006,3.006,0,0,1,.844.53l-.665.647a2.074,2.074,0,0,0-1.438-.5,1.518,1.518,0,0,0-1.392.548.83.83,0,0,0,.024,1.008,2.129,2.129,0,0,0,1.34.534,3.87,3.87,0,0,1,1.659.586,1.647,1.647,0,0,1,.683,1.481,1.678,1.678,0,0,1-.754,1.359A2.9,2.9,0,0,1,646.564-298.062Z" transform="translate(-471.72 342.88)" fill="#fff"/>
      </g>
      <g transform="matrix(1, 0, 0, 1, -61.67, -37.79)" filter="url(#Caminho_326)">
        <path id="Caminho_326-2" data-name="Caminho 326" d="M667.224-298.062H666.2v-6.114h-2.535v-.913h6.091v.913h-2.535Z" transform="translate(-485.36 342.88)" fill="#fff"/>
      </g>
      <g transform="matrix(1, 0, 0, 1, -61.67, -37.79)" filter="url(#Caminho_327)">
        <path id="Caminho_327-2" data-name="Caminho 327" d="M689.571-300.728h-1.649l0,2.759h-1.114v-6.986h3.082a2.673,2.673,0,0,1,1.954.656,1.964,1.964,0,0,1,.548,1.471v.019a2.135,2.135,0,0,1-1.687,2.1l1.8,2.736h-1.4Zm.188-3.284h-1.837v2.549h1.87c.889,0,1.476-.478,1.476-1.26v-.018C691.268-303.614,690.63-304.012,689.759-304.012Z" transform="translate(-501.33 342.79)" fill="#fff"/>
      </g>
      <g transform="matrix(1, 0, 0, 1, -61.67, -37.79)" filter="url(#Caminho_328)">
        <path id="Caminho_328-2" data-name="Caminho 328" d="M709.622-305.106h1.026v7.033h-1.026Z" transform="translate(-517.07 342.89)" fill="#fff"/>
      </g>
      <g transform="matrix(1, 0, 0, 1, -61.67, -37.79)" filter="url(#Caminho_329)">
        <path id="Caminho_329-2" data-name="Caminho 329" d="M722.185-299.819h-3.364L718-297.969h-1.008l2.971-6.986h1.129l2.966,6.986h-1.04Zm-3.088-.9h2.815l-1.414-3.5Z" transform="translate(-522.15 342.79)" fill="#fff"/>
      </g>
      <g transform="matrix(1, 0, 0, 1, -61.67, -37.79)" filter="url(#Caminho_330)">
        <path id="Caminho_330-2" data-name="Caminho 330" d="M743.106-305.106h1.027v7.033h-1.027Z" transform="translate(-540.17 342.89)" fill="#fff"/>
      </g>
      <g transform="matrix(1, 0, 0, 1, -61.67, -37.79)" filter="url(#Caminho_331)">
        <path id="Caminho_331-2" data-name="Caminho 331" d="M753.161-298.062a4.31,4.31,0,0,1-1.686-.281,3.768,3.768,0,0,1-.969-.586l.665-.646a2.774,2.774,0,0,0,1.734.6,1.583,1.583,0,0,0,1.5-.549,1.028,1.028,0,0,0,0-1.1,1.832,1.832,0,0,0-1.467-.642,3.849,3.849,0,0,1-1.588-.516,1.411,1.411,0,0,1-.647-1.349,1.613,1.613,0,0,1,.764-1.4,2.848,2.848,0,0,1,1.654-.562,4.127,4.127,0,0,1,1.565.234,3.01,3.01,0,0,1,.843.53l-.665.647a2.075,2.075,0,0,0-1.438-.5,1.518,1.518,0,0,0-1.392.548.829.829,0,0,0,.024,1.008,2.128,2.128,0,0,0,1.34.534,3.869,3.869,0,0,1,1.659.586,1.646,1.646,0,0,1,.684,1.481,1.68,1.68,0,0,1-.754,1.359A2.9,2.9,0,0,1,753.161-298.062Z" transform="translate(-545.28 342.88)" fill="#fff"/>
      </g>
    </g>
    <g transform="matrix(1, 0, 0, 1, 108.44, -406.97)" filter="url(#Retângulo_122)">
      <rect id="Retângulo_122-2" data-name="Retângulo 122" width="42.638" height="42.576" transform="translate(9 9)" fill="#00acd8"/>
    </g>
    <path id="Caminho_332" data-name="Caminho 332" d="M143.324-345.56h26.595V-347.7h-24.45v-22.245h22.306v16.726H151.047v-11.237h11.237v5.747h-6.82v2.144h8.964V-366.6H148.9v15.525h21.015v-21.015H143.324Z" transform="translate(-17.858 -17.858)" fill="#101820"/>
  </g>
</svg>
